{
    "id" : "io.gitlab.news_flash.NewsFlash.Devel",
    "runtime" : "org.gnome.Platform",
    "runtime-version" : "46",
    "sdk" : "org.gnome.Sdk",
    "sdk-extensions" : [
        "org.freedesktop.Sdk.Extension.rust-stable"
    ],
    "command" : "io.gitlab.news_flash.NewsFlash",
    "tags" : [
        "nightly"
    ],
    "desktop-file-name-suffix" : " Devel",
    "finish-args" : [
        "--share=network",
        "--share=ipc",
        "--socket=x11",
        "--socket=wayland",
        "--socket=pulseaudio",
        "--device=dri",
        "--talk-name=org.freedesktop.Notifications"
    ],
    "build-options" : {
        "append-path" : "/usr/lib/sdk/rust-stable/bin",
        "build-args" : [
            "--share=network"
        ],
        "env" : {
            "CARGO_HOME" : "/run/build/newsflash/cargo",
            "RUSTFLAGS" : "--remap-path-prefix =../",
            "RUST_BACKTRACE" : "1",
            "PASSWORD_CRYPT_KEY" : "@PASSWORD_CRYPT_KEY@"
        }
    },
    "modules" : [
        {
            "name": "gtuber",
            "buildsystem": "meson",
            "config-opts": [
                "-Dintrospection=disabled",
                "-Dvapi=disabled",
                "-Dgst-gtuber=enabled"
            ],
            "cleanup": [
                "/include",
                "/lib/pkgconfig"
            ],
            "sources": [
                {
                    "type": "git",
                    "url": "https://github.com/Rafostar/gtuber.git",
                    "branch": "main"
                }
            ]
        },
        {
            "name": "clapper",
            "buildsystem": "meson",
            "config-opts": [
                "-Dclapper=enabled",
                "-Dclapper-gtk=enabled",
                "-Dclapper-app=disabled",
                "-Dintrospection=enabled",
                "-Dvapi=enabled"
            ],
            "cleanup": [
                "/include",
                "/lib/pkgconfig"
            ],
            "sources": [
                {
                    "type": "git",
                    "url": "https://github.com/Rafostar/clapper.git",
                    "branch": "master"
                }
            ]
        },
        {
            "name": "blueprint-compiler",
            "buildsystem": "meson",
            "sources": [
                {
                    "type": "git",
                    "url": "https://gitlab.gnome.org/jwestman/blueprint-compiler",
                    "tag": "v0.12.0"
                }
            ]
        },
        {
            "name" : "newsflash",
            "buildsystem" : "meson",
            "config-opts": [
                "-Dprofile=development"
            ],
            "sources" : [
                {
                    "type" : "dir",
                    "path" : "../"
                }
            ]
        }
    ]
}


