<?xml version="1.0" encoding="UTF-8" standalone="no"?>
<svg
   xmlns:dc="http://purl.org/dc/elements/1.1/"
   xmlns:cc="http://creativecommons.org/ns#"
   xmlns:rdf="http://www.w3.org/1999/02/22-rdf-syntax-ns#"
   xmlns:svg="http://www.w3.org/2000/svg"
   xmlns="http://www.w3.org/2000/svg"
   xmlns:sodipodi="http://sodipodi.sourceforge.net/DTD/sodipodi-0.dtd"
   xmlns:inkscape="http://www.inkscape.org/namespaces/inkscape"
   width="16px"
   height="16px"
   viewBox="0 0 16 16"
   version="1.1"
   id="svg7"
   sodipodi:docname="globe-alt-symbolic.svg"
   inkscape:version="1.0.2 (e86c870879, 2021-01-15)">
  <metadata
     id="metadata13">
    <rdf:RDF>
      <cc:Work
         rdf:about="">
        <dc:format>image/svg+xml</dc:format>
        <dc:type
           rdf:resource="http://purl.org/dc/dcmitype/StillImage" />
      </cc:Work>
    </rdf:RDF>
  </metadata>
  <defs
     id="defs11" />
  <sodipodi:namedview
     pagecolor="#ffffff"
     bordercolor="#666666"
     borderopacity="1"
     objecttolerance="10"
     gridtolerance="10"
     guidetolerance="10"
     inkscape:pageopacity="0"
     inkscape:pageshadow="2"
     inkscape:window-width="1920"
     inkscape:window-height="995"
     id="namedview9"
     showgrid="false"
     inkscape:zoom="31.5"
     inkscape:cx="8.2824961"
     inkscape:cy="11.527567"
     inkscape:window-x="0"
     inkscape:window-y="0"
     inkscape:window-maximized="1"
     inkscape:current-layer="surface21362" />
  <g
     id="surface21362"
     transform="scale(1.0666667)">
    <path
       style="fill:#2e3335;fill-opacity:1;fill-rule:nonzero;stroke:none"
       d="M 7.5,0 C 3.371094,0 0,3.371094 0,7.5 0,11.628906 3.371094,15 7.5,15 11.628906,15 15,11.628906 15,7.5 15,3.371094 11.628906,0 7.5,0 Z m 0,2 C 10.550781,2 13,4.449219 13,7.5 13,10.550781 10.550781,13 7.5,13 4.449219,13 2,10.550781 2,7.5 2,4.449219 4.449219,2 7.5,2 Z m 0,0"
       id="path2" />
    <path
       style="fill:#2e3335;fill-opacity:0.5;fill-rule:nonzero;stroke:none"
       d="M 4.207031,3.097656 C 2.875,4.097656 2.066406,5.640625 2,7.300781 L 2.210938,7.515625 3.09375,8.394531 V 9.28125 l 0.882812,0.878906 V 11.75 C 4.25,11.980469 4.546875,12.183594 4.859375,12.355469 V 11.925781 L 5.742188,11.046875 V 10.160156 L 6.625,9.28125 5.742188,8.394531 4.859375,7.515625 H 3.09375 V 6.628906 H 3.976562 V 5.75 L 4.859375,4.863281 H 5.742188 V 3.984375 L 4.859375,3.097656 Z m 5.066407,0 V 3.984375 H 8.390625 L 7.507812,4.863281 8.390625,5.75 9.273438,4.863281 h 1.765624 L 11.949219,6.1875 v 0.441406 l 0.855469,0.886719 V 5.980469 c -0.335938,-1.152344 -1.039063,-2.164063 -2,-2.882813 z m 3.53125,4.417969 -0.910157,0.050781 -0.855469,-0.9375 V 6.410156 H 9.960938 L 9.519531,5.75 H 8.390625 L 7.507812,6.628906 v 0.886719 l 0.882813,0.878906 h 0.882813 l 0.46875,0.664063 v 1.765625 l 1.191406,1.015625 c 0.371094,-0.300782 0.703125,-0.644532 0.988281,-1.027344 V 8.394531 Z m 0,0"
       id="path4" />
  </g>
</svg>
